%YAML 1.1
%TAG !u! tag:unity3d.com,2011:
--- !u!21 &2100000
Material:
  serializedVersion: 6
  m_ObjectHideFlags: 0
  m_PrefabParentObject: {fileID: 0}
  m_PrefabInternal: {fileID: 0}
  m_Name: Ants_particle
  m_Shader: {fileID: 46, guid: 0000000000000000f000000000000000, type: 0}
  m_ShaderKeywords: _ALPHATEST_ON _EMISSION
  m_LightmapFlags: 0
  m_EnableInstancingVariants: 0
  m_DoubleSidedGI: 0
  m_CustomRenderQueue: 2450
  stringTagMap:
    RenderType: TransparentCutout
  disabledShaderPasses: []
  m_SavedProperties:
    serializedVersion: 3
    m_TexEnvs:
    - _BumpMap:
        m_Texture: {fileID: 0}
        m_Scale: {x: 1, y: 1}
        m_Offset: {x: 0, y: 0}
    - _DetailAlbedoMap:
        m_Texture: {fileID: 0}
        m_Scale: {x: 1, y: 1}
        m_Offset: {x: 0, y: 0}
    - _DetailMask:
        m_Texture: {fileID: 0}
        m_Scale: {x: 1, y: 1}
        m_Offset: {x: 0, y: 0}
    - _DetailNormalMap:
        m_Texture: {fileID: 0}
        m_Scale: {x: 1, y: 1}
        m_Offset: {x: 0, y: 0}
    - _EmissionMap:
        m_Texture: {fileID: 0}
        m_Scale: {x: 1, y: 1}
        m_Offset: {x: 0, y: 0}
    - _MainTex:
        m_Texture: {fileID: 2800000, guid: 46c800b3409781a44bc9c66320fa7ebb, type: 3}
        m_Scale: {x: 1, y: 1}
        m_Offset: {x: 0, y: 0}
    - _MetallicGlossMap:
        m_Texture: {fileID: 0}
        m_Scale: {x: 1, y: 1}
        m_Offset: {x: 0, y: 0}
    - _OcclusionMap:
        m_Texture: {fileID: 0}
        m_Scale: {x: 1, y: 1}
        m_Offset: {x: 0, y: 0}
    - _ParallaxMap:
        m_Texture: {fileID: 0}
        m_Scale: {x: 1, y: 1}
        m_Offset: {x: 0, y: 0}
    - _SpecGlossMap:
        m_Texture: {fileID: 0}
        m_Scale: {x: 1, y: 1}
        m_Offset: {x: 0, y: 0}
    m_Floats:
    - _BlendOp: 0
    - _BumpScale: 1
    - _CameraFadingEnabled: 0
    - _CameraFarFadeDistance: 2
    - _CameraNearFadeDistance: 1
    - _Cull: 0
    - _Cutoff: 0.426
    - _DetailNormalMapScale: 1
    - _DistortionBlend: 0.5
    - _DistortionEnabled: 0
    - _DistortionStrength: 1
    - _DistortionStrengthScaled: 0
    - _DstBlend: 0
    - _EmissionEnabled: 0
    - _FlipbookMode: 0
    - _GlossMapScale: 1
    - _Glossiness: 0
    - _GlossyReflections: 1
    - _LightingEnabled: 1
    - _Metallic: 0
    - _Mode: 1
    - _OcclusionStrength: 1
    - _Parallax: 0.02
    - _SmoothnessTextureChannel: 0
    - _SoftParticlesEnabled: 0
    - _SoftParticlesFarFadeDistance: 1
    - _SoftParticlesNearFadeDistance: 0
    - _SpecularHighlights: 1
    - _SrcBlend: 1
    - _UVSec: 0
    - _ZWrite: 1
    m_Colors:
    - _CameraFadeParams: {r: 0, g: Infinity, b: 0, a: 0}
    - _Color: {r: 0.25, g: 0.07512676, b: 0.04044117, a: 1}
    - _EmissionColor: {r: 0, g: 0, b: 0, a: 1}
    - _SoftParticleFadeParams: {r: 0, g: 0, b: 0, a: 0}
    - _SpecColor: {r: 0.2, g: 0.2, b: 0.2, a: 1}
